<svg xmlns="http://www.w3.org/2000/svg" viewBox="0 0 191.9 45.9">
  <path
    d="M47.4 21.4L41.5 18c-1.2-.7-2.1-1.7-2.8-2.8-.6-1.1-1-2.4-1-3.8V8.1c-1.6-1.4-3.3-2.6-5.3-3.5v6.9c0 2.3.6 4.5 1.7 6.4 1.1 1.9 2.7 3.5 4.7 4.7l8.4 4.9c.2-1.1.2-2.2.2-3.3.1-1 .1-1.9 0-2.8">
  </path>
  <path
    d="M31.9 19.2c-1.3-2.3-2.1-4.9-2.1-7.7V.9C28.1.4 26.4.1 24.5 0v11.5c0 3.8 1 7.3 2.8 10.4 1.8 3.1 4.3 5.7 7.6 7.6l7.6 4.4c.8-1.6 1.4-3.3 1.8-5L37.5 25c-2.4-1.5-4.3-3.5-5.6-5.8m-24 3.4c2-1.2 3.6-2.8 4.7-4.7 1.1-1.9 1.7-4.1 1.7-6.4V1.8c-1.9.8-3.7 1.8-5.3 3v6.8c0 1.4-.4 2.7-1 3.8-.6 1.1-1.6 2.1-2.8 2.8l-2.9 1.7c-.3 1.4-.4 2.9-.4 4.4 0 .6 0 1.3.1 1.9l5.9-3.6z">
  </path>
  <path
    d="M19.4 21.8c1.8-3.1 2.8-6.6 2.8-10.4V2.6c-1.8.1-3.6.4-5.3 1v7.9c0 2.8-.8 5.5-2.1 7.7-1.3 2.3-3.2 4.3-5.7 5.7L0 30.2c.5 1.7 1.1 3.4 1.9 5l9.9-5.7c3.3-2 5.8-4.6 7.6-7.7m4 14.8c-2.2 0-4.4.6-6.4 1.7l-8.4 4.9c1.6 1.2 3.3 2.3 5.2 3.1l5.9-3.4c1.2-.7 2.5-1 3.8-1 1.3 0 2.6.3 3.8 1l2.9 1.7c2-.7 3.9-1.6 5.6-2.8l-5.9-3.4c-2.1-1.3-4.3-1.8-6.5-1.8">
  </path>
  <path
    d="M33.7 31.5c-3.3-1.9-6.8-2.8-10.4-2.8-3.5 0-7.1.9-10.4 2.8l-7.7 4.4c1 1.5 2.1 2.9 3.5 4.1l6.8-3.9c2.4-1.4 5.1-2.1 7.7-2.1 2.6 0 5.3.7 7.7 2.1l9.2 5.3c1.3-1.2 2.4-2.6 3.4-4.1l-9.8-5.8zm99.6-8.5c-.3-.1-.8-.3-1.3-.5s-1.1-.4-1.5-.6c-.9-.4-1.7-.7-1.7-1.6 0-1.2 1.5-1.4 2.1-1.4 1.3 0 2.9.3 4.3 1.4l2.2-3.7c-1.9-1.3-4.2-1.9-6.4-1.9-2.1 0-4 .6-5.2 1.6-.8.6-2.1 2.1-2.1 4.4 0 1.6.5 2.9 1.6 3.9.7.7 1.6 1.1 2.1 1.3.1 0 .2.1.2.1.5.2 1.3.5 2.1.8.3.1.5.2.8.3 1 .4 2 .8 2 1.7 0 1.2-1.2 1.6-2.4 1.6-1.4 0-3.5-.5-5.4-1.9l-2.2 3.8c1.5 1 4.2 2.4 7.5 2.4 2.2 0 3.9-.5 5.3-1.6 1.5-1.2 2.3-2.9 2.3-4.7 0-1.5-.5-2.8-1.6-3.8-.6-.7-1.5-1.2-2.7-1.6m6.4-3.8h4.9v15.3h5V19.2h4.9V15h-14.8zm22.2 7.3h7.3v-4.1h-7.3v-3.2h7.8V15h-12.8v19.5h13v-4.3h-8zm26.2-9.1c-1.2-1.1-3.5-2.3-7.4-2.3H174v19.4h6.7c3.9 0 6.2-1.3 7.4-2.3 2.1-1.8 3.2-4.3 3.2-7.4-.1-3.2-1.1-5.7-3.2-7.4m-3.5 11.5c-.8.8-2.2 1.3-3.7 1.3H179v-11h1.9c2.1 0 3.2.8 3.7 1.2 1 1 1.6 2.6 1.6 4.3-.1 1.8-.6 3.3-1.6 4.2M72.9 24.2c1.5-.8 2.4-2.2 2.4-3.9 0-1.8-.6-3.1-2-4.1-1.1-.8-2.7-1.2-4.6-1.2H61v19.4h8c2.1 0 3.8-.4 5-1.3 1.5-1.1 2.2-2.5 2.2-4.4 0-2.1-1.2-3.7-3.3-4.5m-6.9-5h1.8c1.8 0 2.6.7 2.6 1.7s-.6 1.7-2.6 1.7H66v-3.4zm2.1 11H66v-3.9h2.1c1.9 0 3 .8 3 1.9 0 1.3-1 2-3 2m20.6-15.6c-5.6 0-10.1 4.5-10.1 10.1s4.5 10.1 10.1 10.1 10.1-4.5 10.1-10.1c0-5.5-4.5-10.1-10.1-10.1m0 15.6c-3 0-5.5-2.5-5.5-5.5s2.5-5.5 5.5-5.5 5.5 2.5 5.5 5.5c0 3.1-2.5 5.5-5.5 5.5m22.6-15.6c-5.6 0-10.1 4.5-10.1 10.1s4.5 10.1 10.1 10.1 10.1-4.5 10.1-10.1-4.5-10.1-10.1-10.1m0 15.6c-3 0-5.5-2.5-5.5-5.5s2.5-5.5 5.5-5.5 5.5 2.5 5.5 5.5c0 3.1-2.4 5.5-5.5 5.5">
  </path>
</svg>